…
``` r
# Compute the average house price within each ZIP code over each month in 2023
average_housing_price = clean_housing_df |>
  group_by(region_name, month) |>
  summarise(average_price = mean(value, na.rm = TRUE))
```

    ## `summarise()` has grouped output by 'region_name'. You can override using the
    ## `.groups` argument.

``` r
average_housing_price
```

    ## # A tibble: 316,056 × 3
    ## # Groups:   region_name [26,338]
    ##    region_name month average_price
    ##          <dbl> <chr>         <dbl>
    ##  1        1001 01          295063.
    ##  2        1001 02          295956.
    ##  3        1001 03          297317.
    ##  4        1001 04          299400.
    ##  5        1001 05          301701.
    ##  6        1001 06          303843.
    ##  7        1001 07          306040.
    ##  8        1001 08          308505.
    ##  9        1001 09          311004.
    ## 10        1001 10          312748.
    ## # ℹ 316,046 more rows
…
clean_housing_2023_avg = clean_housing_df |>
  group_by(region_name) |>
  summarise(avg_value_housing = mean(value, na.rm = TRUE))

# Merge the two datasets by region_name
housing_rental_df = 
  inner_join(clean_rental_2023_avg, clean_housing_2023_avg, by = "region_name")|>
  filter(!is.na(avg_value_rental) & !is.na(avg_value_housing))

print(housing_rental_df)
```

    ## # A tibble: 123 × 3
    ##    region_name avg_value_rental avg_value_housing
    ##          <dbl>            <dbl>             <dbl>
    ##  1       10001            4910.          1692425.
    ##  2       10002            4238.          1009289.
    ##  3       10003            4317.          1422138.
    ##  4       10004            3846.          1156242.
    ##  5       10005            4005.          1120276.
    ##  6       10006            4388.          1003514.
    ##  7       10007            7821.          2994558.
    ##  8       10009            4108.          1001662.
    ##  9       10010            4433.          1338932.
    ## 10       10011            4930.          1623876.
    ## # ℹ 113 more rows
…
